641805 600514 509
331016 998681 525
737645 5444 509
87823 997196 525
144328 6236 375
696239 359671 509
163034 570862 470
43106 692153 509
539157 842342 525
121356 372232 443
221993 222217 262
612283 461309 470
669561 22085 509
561570 618275 447
600139 800063 509
472014 833742 509
703218 200090 509
965045 460290 525
210162 961967 525
221451 875083 525
445374 8135 449
107320 268490 443
824538 91961 509
725704 47202 509
977276 754893 525
761659 360288 509
170862 534795 470
458803 361754 449
434547 63623 449
940197 170096 525
679152 245189 509
278635 835100 509
829701 194664 509
309160 200844 443
301402 848542 525
169067 345445 443
841743 696091 525
642874 504549 509
913075 950283 507
648176 202749 509
518803 427198 470
944934 830695 525
668074 838818 525
144695 818291 509
495015 581777 470
291013 336012 384
274649 457256 449
522868 321519 470
307534 139444 443
160310 298293 443
138703 216716 386
292544 895827 525
836242 872455 525
549588 998077 525
846910 522013 525
108599 875190 525
916373 131669 525
801327 922692 525
992838 286957 525
110728 770650 509
233240 160283 443
460270 49118 449
635919 655678 416
989371 114129 525
697247 117153 509
550321 350264 470
637694 499911 509
918143 550877 525
681154 88816 509
782053 680625 504
82471 560531 470
836566 729821 468
649788 764719 504
740991 630992 504
46512 51899 314
649038 363814 509
806718 544935 509
844020 714314 525
340910 594207 470
717705 569935 509
605861 198303 470
60598 302765 443
741387 592143 509
241429 781094 509
680516 439345 509
402301 826795 509
835237 971007 525
46606 588969 470
430649 244995 449
862828 323040 525
188347 175705 365
927790 28638 525
693362 594862 509
200813 708682 509
202663 176178 365
544072 29639 470
80079 297918 443
342650 833007 509
820745 525491 509
19684 371088 443
175650 549902 470
232906 139822 443
731814 55308 509
449776 334582 449
942224 770551 525
515948 569017 452
170248 141166 383
986677 441991 525
351315 612229 470
924408 58356 525
775130 424278 509
597733 382323 470
820120 501895 509
607484 609303 403
891257 549776 525
405637 794643 509
26643 780986 509
131788 493185 449
928067 289926 525
47965 187949 383
40394 508607 449
976649 221308 525
262570 674219 509
550328 975548 525
257509 716882 509
755865 912296 525
725105 175874 509
576352 516261 452
984297 813999 525
813198 323234 509
434111 244679 449
335534 405360 441
434873 432739 387
426465 765613 509
995505 263944 525
38250 898530 525
272506 38457 443
784381 472560 509
844738 382039 525
334743 206310 443
158433 568397 470
983771 479312 525
751504 350561 509
682160 843673 525
209907 711829 509
95935 851575 525
11533 603474 470
21117 30283 308
810803 697022 504
619441 366102 470
185839 583496 470
219524 300317 443
227572 193207 386
43900 437625 449
591993 660394 509
579315 266530 470
438825 818469 509
828270 183881 509
1581 183791 383
171925 205434 365
835042 812097 450
619180 706925 509
683100 80909 509
568828 726749 509
122671 328461 443
187564 861601 525
179884 827164 509
295384 301236 371
512524 597750 452
555064 652518 509
817532 718231 468
639519 16565 509
971032 220298 525
74895 451165 449
178710 806489 509
234384 943283 525
811609 791575 468
120235 313623 443
932485 545411 525
151190 564658 470
263177 507308 449
845376 545760 525
973894 226401 525
673794 399494 509
88315 220452 386
365050 477666 449
785057 547795 509
263829 733168 509
115955 489008 449
118173 280356 443
757867 978214 525
61710 111541 354
203780 668430 509
936204 452865 525
32532 162272 383
845399 415447 525
690283 229667 509
448515 297604 449
289332 89778 443
289862 538228 470
982019 2305 525
561685 342611 470
77387 50570 351
432682 9369 449
752471 114010 509
448724 317221 449
185972 359878 443
112272 549761 470
238882 867145 525
286121 66461 443
616204 333391 470
89321 141443 354
857060 485750 525
804870 213024 509
186946 587184 470
437069 162191 449
468582 694054 509
229702 791839 509
741202 491481 509
667904 703059 442
115274 294390 443
360659 585811 470
868774 98266 525
981419 736682 525
198576 398501 443
695809 145402 509
296193 663362 509
139460 544403 470
261987 776008 509
607233 874094 525
98077 738458 509
784586 486406 509
82692 105566 341
762195 244321 509
449545 781760 509
5924 50877 324
46703 696401 509
381784 580200 470
103921 347422 443
180813 182117 316
842890 863037 419
993458 147531 525
888192 751968 525
705948 75048 509
580724 706676 509
112140 477748 449
910378 162471 525
253521 346571 441
