641805 600514
331016 998681
737645 5444
87823 997196
144328 6236
696239 359671
163034 570862
43106 692153
539157 842342
121356 372232
221993 222217
612283 461309
669561 22085
561570 618275
600139 800063
472014 833742
703218 200090
965045 460290
210162 961967
221451 875083
445374 8135
107320 268490
824538 91961
725704 47202
977276 754893
761659 360288
170862 534795
458803 361754
434547 63623
940197 170096
679152 245189
278635 835100
829701 194664
309160 200844
301402 848542
169067 345445
841743 696091
642874 504549
913075 950283
648176 202749
518803 427198
944934 830695
668074 838818
144695 818291
495015 581777
291013 336012
274649 457256
522868 321519
307534 139444
160310 298293
138703 216716
292544 895827
836242 872455
549588 998077
846910 522013
108599 875190
916373 131669
801327 922692
992838 286957
110728 770650
233240 160283
460270 49118
635919 655678
989371 114129
697247 117153
550321 350264
637694 499911
918143 550877
681154 88816
782053 680625
82471 560531
836566 729821
649788 764719
740991 630992
46512 51899
649038 363814
806718 544935
844020 714314
340910 594207
717705 569935
605861 198303
60598 302765
741387 592143
241429 781094
680516 439345
402301 826795
835237 971007
46606 588969
430649 244995
862828 323040
188347 175705
927790 28638
693362 594862
200813 708682
202663 176178
544072 29639
80079 297918
342650 833007
820745 525491
19684 371088
175650 549902
232906 139822
731814 55308
449776 334582
942224 770551
515948 569017
170248 141166
986677 441991
351315 612229
924408 58356
775130 424278
597733 382323
820120 501895
607484 609303
891257 549776
405637 794643
26643 780986
131788 493185
928067 289926
47965 187949
40394 508607
976649 221308
262570 674219
550328 975548
257509 716882
755865 912296
725105 175874
576352 516261
984297 813999
813198 323234
434111 244679
335534 405360
434873 432739
426465 765613
995505 263944
38250 898530
272506 38457
784381 472560
844738 382039
334743 206310
158433 568397
983771 479312
751504 350561
682160 843673
209907 711829
95935 851575
11533 603474
21117 30283
810803 697022
619441 366102
185839 583496
219524 300317
227572 193207
43900 437625
591993 660394
579315 266530
438825 818469
828270 183881
1581 183791
171925 205434
835042 812097
619180 706925
683100 80909
568828 726749
122671 328461
187564 861601
179884 827164
295384 301236
512524 597750
555064 652518
817532 718231
639519 16565
971032 220298
74895 451165
178710 806489
234384 943283
811609 791575
120235 313623
932485 545411
151190 564658
263177 507308
845376 545760
973894 226401
673794 399494
88315 220452
365050 477666
785057 547795
263829 733168
115955 489008
118173 280356
757867 978214
61710 111541
203780 668430
936204 452865
32532 162272
845399 415447
690283 229667
448515 297604
289332 89778
289862 538228
982019 2305
561685 342611
77387 50570
432682 9369
752471 114010
448724 317221
185972 359878
112272 549761
238882 867145
286121 66461
616204 333391
89321 141443
857060 485750
804870 213024
186946 587184
437069 162191
468582 694054
229702 791839
741202 491481
667904 703059
115274 294390
360659 585811
868774 98266
981419 736682
198576 398501
695809 145402
296193 663362
139460 544403
261987 776008
607233 874094
98077 738458
784586 486406
82692 105566
762195 244321
449545 781760
5924 50877
46703 696401
381784 580200
103921 347422
180813 182117
842890 863037
993458 147531
888192 751968
705948 75048
580724 706676
112140 477748
910378 162471
253521 346571
