23457 107166 354
569368 869703 525
958431 138488 525
621374 258514 470
742340 297699 509
604855 998508 525
640714 518515 509
36393 896541 525
774311 891254 525
12392 76357 340
865146 204021 525
970428 668310 525
410191 641058 509
948712 734488 525
581719 74237 470
509857 893893 525
884152 137385 525
572718 366607 470
105546 750266 509
609675 199925 470
188753 170081 365
360690 228811 443
657879 616798 509
622706 355396 470
619399 906275 525
886951 475467 525
722722 880179 525
927848 29657 525
373986 328143 441
978992 561948 525
564452 68030 470
505225 223686 449
302260 297968 371
911873 685566 525
329695 514615 470
670586 446271 509
68978 955416 525
205959 446195 449
897286 784541 525
243687 733248 509
538784 214236 470
338787 408348 441
499285 590134 470
56832 73735 335
366057 742917 509
972582 370848 525
938135 862565 476
989741 896962 507
489671 932839 525
185860 210411 373
498216 521418 470
155970 991537 525
308228 276632 389
783605 383879 509
946473 558201 525
5168 225563 386
221525 621742 470
190791 980969 525
857800 903776 445
921762 200394 525
726615 295087 509
942817 285521 525
255398 669961 509
927523 760676 525
358949 648238 509
907257 823028 525
46731 999204 525
375731 193419 443
392462 379429 436
667867 372679 509
65897 426162 449
785907 801259 468
269347 443538 449
922905 226671 525
533101 755847 509
585814 391130 470
453441 200420 449
662736 797925 504
54213 613727 470
35057 751785 509
792648 372567 509
37685 457451 449
374612 927479 525
407342 83645 443
594753 708041 509
163092 280902 443
706549 793714 468
266526 241145 407
836227 877645 525
883076 760880 525
294839 897230 525
595631 503563 470
932558 956967 507
384878 779490 509
234857 788470 509
502250 995808 525
255853 649520 509
802178 750644 468
598266 166991 470
805405 37384 509
971598 469296 525
246130 558072 470
574504 436523 470
94914 120826 354
142412 512117 470
323135 654208 509
981760 3838 525
749294 385736 509
348014 504838 449
51897 324914 443
295289 713107 509
488152 764551 509
954724 563886 525
86520 201202 383
780883 686075 504
806541 83609 509
267641 110674 443
754874 576594 509
82166 881963 525
340360 342026 335
550452 545432 452
166610 771187 509
33242 877116 525
581721 221656 470
697470 194870 509
576995 992020 525
346826 384860 423
459577 542488 470
369389 169806 443
79055 28794 351
901101 386202 525
928698 175885 525
788917 39886 509
628749 413592 509
116291 448912 449
350389 605773 470
520150 703856 509
299225 221695 443
902940 944947 507
648843 461128 509
864518 516939 525
536167 977473 525
877185 365940 525
614004 498441 470
756089 402018 509
133493 513357 470
394043 567360 470
725512 800047 468
882814 700969 525
727191 150740 509
34222 745193 509
970681 188102 525
535490 710922 509
24428 694977 509
83820 205878 383
165414 173864 352
255093 708834 509
722783 782588 468
572551 515385 452
83614 279201 443
96123 899462 525
432367 607972 470
874098 576748 525
975633 23239 525
60250 406500 443
284653 618105 470
476977 250229 449
549465 758759 509
675497 285707 509
637787 732211 504
729647 694835 504
395726 81123 443
452156 717505 509
852303 661000 525
569197 42357 470
930760 516348 525
671994 55025 509
464263 717220 509
235384 604622 470
141752 161844 383
391945 291126 441
450731 394517 449
368797 341418 441
129296 952565 525
228004 645498 509
46828 805499 509
207367 719131 509
511353 725046 509
534641 996501 525
566023 501049 470
694768 492224 509
790273 329649 509
552503 135368 470
162423 119887 383
871631 816463 525
108310 282363 443
509122 970536 525
376392 339782 441
89769 287380 443
406368 107268 443
775892 259515 509
314155 946425 525
365609 352892 410
849812 983058 507
449713 101706 449
574138 202026 470
259543 127396 443
952340 145913 525
351785 335871 441
676687 239275 509
495822 867042 525
30825 670080 509
135302 708216 509
656448 442948 509
220680 302213 443
491234 334695 449
815024 495339 509
169164 195077 365
350281 640786 509
449545 56254 449
938826 393401 525
376369 887953 525
401138 676900 509
941439 49473 525
556183 707802 509
337368 498233 449
93768 998438 525
763868 497751 509
394102 774273 509
942738 441859 525
890540 716528 525
869126 807756 525
965269 138332 525
210025 627906 509
432089 216686 449
268527 439967 449
993828 588415 525
312575 333989 384
110013 616769 470
295973 812986 509
390569 384893 436
213601 201733 373
456197 776513 509
558244 343342 470
919418 374880 525
516703 220652 470
946817 321916 525
117088 811817 509
296079 660385 509
244696 707671 509
130248 972659 525
853413 619226 525
849737 637376 525
188466 921304 525
47224 105831 351
608383 72734 470
280227 846813 525
413674 543256 470
41611 373803 443
361160 303215 441
872371 228299 525
587662 74516 470
87576 249333 443
949729 935340 507
485411 617911 470
367132 146847 443
855250 157008 525
622131 848373 525
629100 864004 525
636512 304154 509
